{
    "pads": 
    [    {
        "id": "couv_clara",
        "string": "Couverture Clara",
        "type": "md",
        "url": "https://pads.domainepublic.net/p/CouvVitryClara"
    },
    {
        "id": "couv_florian",
        "string": "Couverture Florian",
        "type": "md",
        "url": "https://pads.domainepublic.net/p/CouvVitryFlorian"
    },
    {
        "id": "voice2",
        "string": "Florian",
        "type": "md",
        "url": "https://pad.evolix.org/p/FlorianVitry"
    },
    {
        "id": "voice1",
        "string": "Clara",
        "type": "md",
        "url": "https://ether.immae.eu/p/ClaraVitry"
    },
    {
        "id": "voice1_margins",
        "string": "Marges Florian",
        "type": "md",
        "url": "https://pad.kaz.bzh/p/MargesClaraVitry"
    },
    {
        "id": "voice2_margins",
        "string": "Marges Clara",
        "type": "md",
        "url": "https://pad.sequanux.org/p/MargesFlorianVitry"
    },
    {
        "id": "pad-css",
        "string": "CSS",
        "type": "css",
        "url": "https://pad.roflcopter.fr/p/CSSVitryAPO"
    }]
}
